[{
  "_id":"id",
  "name":"name",
  "maps":{
    "map":"diffuse.jpg",
    "bumpMap": "bump.jpg",
    "normalMap": "normal.jpg",
    "metalnessMap": "metalness.jpg",
    "roughnessMap": "roughness.jpg",
    "displacementMap": "displacement.jpg"
  },
  "mapsRS":{
    "map":"diffuse.jpg",
    "bumpMap": "bump.jpg",
    "normalMap": "normal.jpg",
    "metalnessMap": "metalness.jpg",
    "roughnessMap": "roughness.jpg",
    "displacementMap": "displacement.jpg"
  },
  "settings":{
    "color":"#ffffff",
    "envMapIntensity":1,
    "opacity":1,
    "reflectivity":1,
    "metalness":1,
    "roughness":1,
    "bumpScale":0,
    "displacementScale":0
  }
}]